<?xml version="1.0" encoding="utf-8"?>
<!-- Generator: Adobe Illustrator 21.0.2, SVG Export Plug-In . SVG Version: 6.00 Build 0)  -->
<svg version="1.1" id="Layer_1" xmlns="http://www.w3.org/2000/svg" xmlns:xlink="http://www.w3.org/1999/xlink" x="0px" y="0px" 
	width="57.263px" height="58.323px" viewBox="0 0 100 125" fill="#EC155A" xml:space="preserve">
<g>
	<path d="M67.4,80.4l-8.7-0.5l1.5-9.5l0,0c0-0.1,0.1-0.3,0.1-0.4c0.3-2.5-1.7-5.1-4.5-4.8c-2.2,0.2-5.1,2.1-8.8,1.3c0,0,0,0,0,0.1
		c-0.3,0.8-0.9,1.4-1.7,1.8c-0.4,0.2-0.8,0.2-1.2,0.2c-1,0-2-0.5-2.6-1.3l-4.5-5c-0.1,0-0.3,0-0.4,0c-2.8-0.2-5.4,2.5-5.2,5.3
		c0.1,0.9,0.7,3,1,4.1l1.3,7.7l-2,0.1v3.3c0,0.8-0.3,1.4-0.7,1.9l7.6,0.2c1,0,1.8-0.8,1.8-1.8V83v-4v-5.6l7.1,1.2
		c0,0,1.2,3.7,3.8,4.1c1.1,0.2,1.9-0.4,2.9-1.3l-0.7,5.3c-0.1,0.9,0.5,1.7,1.5,1.6h3.1l0,0l9-0.1c1.1,0,2-0.7,2.3-1.6
		C69.5,81.5,68.7,80.5,67.4,80.4z"/>
	<ellipse transform="matrix(0.1492 -0.9888 0.9888 0.1492 -3.118 62.1221)" cx="34.5" cy="32.9" rx="6.5" ry="6.5"/>
	<path d="M33.4,55l0.9,2.7l7.9,8.9c0.4,0.6,1.1,1,1.9,1c0.3,0,0.6-0.1,0.9-0.2c1.2-0.5,1.7-1.8,1.1-2.8L44.9,63c1.5-0.4,3,0,4,0.2
		c1.1,0.3,2.3,0,3.2-0.9c1.3-1.3,1.4-3.5,0-4.8c-0.2-0.2-0.4-0.4-0.6-0.5c-0.3-0.2-0.6-0.3-1.1-0.4l0,0l0,0l0,0
		c-0.1,0-0.2,0-0.4-0.1c-3.4-0.5-5.5,2-6.7,4.5l-4-5.4l-3.2-12c-0.1-0.3-0.2-0.5-0.4-0.7c-0.6-1.3-1.9-2.4-3.5-2.7l0,0
		c-0.4-0.1-0.8-0.1-1.3-0.1c-2.4,0-4.5,1.5-5.1,3.7l-5.6,17.6c-0.4,1.7,0.1,3.4,1.3,4.6l1.6,10.8h-6.9c-2.3,0-4.2,1.6-4.2,3.7
		c0,2,1.8,3.6,4,3.7l13,0.3l0,0c1,0,1.8-0.9,1.8-1.9v-5.8L30,66.3L33.4,55z"/>
	<ellipse transform="matrix(0.1492 -0.9888 0.9888 0.1492 -5.929 109.0478)" cx="60.4" cy="58" rx="6.5" ry="6.5"/>
	<path d="M81.3,32.2c-0.1-0.2-0.2-0.4-0.3-0.5c-0.6-1.6-2-2.8-3.8-3.1c-2.7-0.4-5.2,1.4-5.6,4l-3.7,23l1.7,15.2l1.5,10.9
		c0.2,1.7,1.8,2.9,3.5,2.7l0,0c1.7-0.2,3-1.7,2.8-3.5L76.2,70l-0.4-14.2c0.7-0.4,1.4-1,1.8-1.7c0.9,0.3,1.9-0.1,2.4-0.9l7.5-8.7
		c0.5-0.5,0.5-1.3,0.2-1.9L81.3,32.2z M81.9,43.7l-2.8,3.8l1.2-7l1.6,2.2C82.1,43,82.1,43.4,81.9,43.7z"/>
	<circle cx="78.4" cy="21.3" r="6"/>
</g>
</svg>
